Kate M – Education & Wellbeing
…
Code

data %>% 
  summarize(across(everything(), ~ sum(is.na(.)))) %>% 
  pivot_longer(everything(), names_to = "variable", values_to = "missing_count") %>%
  arrange(desc(missing_count))

# A tibble: 21 × 2
   variable              missing_count
   <chr>                         <int>
 1 gender                            0
 2 age                               0
 3 university                        0
 4 degree_level                      0
 5 degree_major                      0
 6 academic_year                     0
 7 cgpa                              0
 8 residential_status                0
 9 campus_discrimination             0
10 sports_engagement                 0
# ℹ 11 more rows
…
